Estudio sobre la relación entre las tecnologías que usan los desarrolladores en su trabajo y su salud mental
…
\[
\Omega = [42] - \{0\} = \text{ Cantidad de lenguajes de programación que usa } \\
\mathcal{F} = 2^\Omega = \text{ Subconjuntos de Omega }  \\
\mathbb{P}(n) = \text{ Probabilidad de que use n lenguajes de programación }
\]

Calculando las probabilidades empíricas de los eventos atómicos:

encuesta %>% group_by(TotalLenguages) %>% count() -> probTotalLenguajes
probTotalLenguajes %>% rename(Frecuencia = n) -> probTotalLenguajes
probTotalLenguajes$ProbabilidadAtomica <- probTotalLenguajes$Frecuencia / nrow(encuesta)
probTotalLenguajes

## # A tibble: 28 × 3
## # Groups:   TotalLenguages [28]
##    TotalLenguages Frecuencia ProbabilidadAtomica
##             <dbl>      <int>               <dbl>
##  1              1       1631              0.0558
##  2              2       3103              0.106 
##  3              3       4448              0.152 
##  4              4       4891              0.167 
##  5              5       4639              0.159 
##  6              6       3609              0.124 
##  7              7       2539              0.0869
##  8              8       1596              0.0547
##  9              9       1006              0.0344
## 10             10        645              0.0221
## # ℹ 18 more rows
…
