Estudio sobre la relación entre las tecnologías que usan los desarrolladores en su trabajo y su salud mental
…
Prontamente observaremos las causas por las que estos lenguajes son
más “problemáticos”.

¿Hay alguna relación entre la popularidad de un lenguaje de
programación y la satisfacción laboral de los programadores que lo
utilizan?

Para esto analizaremos los datos de los lenguajes de programación.
Veremos entonces la lista de lenguajes más populares y compararemos.

languages %>% arrange(desc(N_Usuarios)) -> OrdenUsuarios
select(OrdenUsuarios, Nombre, N_Usuarios) %>% arrange(Nombre)

## # A tibble: 40 × 2
##    Nombre  N_Usuarios
##    <chr>        <dbl>
##  1 APL           3670
##  2 Bash         61747
##  3 C          3793768
##  4 C#          217261
##  5 C++        4128238
##  6 COBOL       187188
##  7 CSS        2881846
##  8 Clojure      59246
##  9 Crystal      27065
## 10 Dart         38325
## # ℹ 30 more rows
…
Pero parémonos a analizar un momento y pensemos, ¿es la popularidad
lo que está definiendo que un lenguaje sea “problemático”, es decir,
afecte negativamente en la salud mental de un desarrollador? O por otro
lado, ¿es un lenguaje popular porque puede ser calificado como
“poco problemático”?

languages %>% arrange(desc(N_Trabajos)) -> OrdenTrabajos
select(OrdenTrabajos, Nombre, N_Trabajos) %>% arrange(Nombre)

## # A tibble: 40 × 2
##    Nombre  N_Trabajos
##    <chr>        <dbl>
##  1 APL             NA
##  2 Bash          4774
##  3 C            59919
##  4 C#           19747
##  5 C++          61098
##  6 COBOL         2616
##  7 CSS          45617
##  8 Clojure        469
##  9 Crystal         NA
## 10 Dart           208
## # ℹ 30 more rows
…
¿Existe una relación entre el acceso a información relevante sobre
un lenguaje de programación y la salud mental de los programadores que
lo utilizan?

El acceso a la información, o la cantidad de documentación que existe
sobre cierto lenguaje podría influir significativamente en la
popularidad y la salud mental de un programador.

Analizaremos el siguiente gráfico:

languages %>% arrange(desc(Github_repos)) -> OrdenGithubrep
select(OrdenGithubrep, Nombre, Github_repos) %>% arrange((Nombre))

## # A tibble: 40 × 2
##    Nombre  Github_repos
##    <chr>          <dbl>
##  1 APL              416
##  2 Bash         1579442
##  3 C            2160271
##  4 C#           2161625
##  5 C++          2161625
##  6 COBOL           3411
##  7 CSS          4446834
##  8 Clojure        82125
##  9 Crystal         7522
## 10 Dart          737948
## # ℹ 30 more rows
…
languages %>% arrange(desc(BigQuery_repos)) -> OrdenBigQueryrep
select(OrdenBigQueryrep, Nombre, BigQuery_repos) %>% arrange((Nombre))

## # A tibble: 40 × 2
##    Nombre  BigQuery_repos
##    <chr>            <dbl>
##  1 APL                 95
##  2 Bash            640005
##  3 C               292876
##  4 C#              133078
##  5 C++             277733
##  6 COBOL              667
##  7 CSS             808537
##  8 Clojure          25889
##  9 Crystal           1197
## 10 Dart              5727
## # ℹ 30 more rows
…
